127.0.0.1, 2015-12-28 13:22:31, GET, /, HTTP/1.1, 303, 0.000722
127.0.0.1, 2015-12-28 13:22:32, GET, /welcome/default/index, HTTP/1.1, 200, 0.833731
127.0.0.1, 2015-12-28 13:22:32, GET, /welcome/static/css/bootstrap.min.css, HTTP/1.1, 200, 0.000597
127.0.0.1, 2015-12-28 13:22:32, GET, /welcome/static/css/web2py-bootstrap3.css, HTTP/1.1, 200, 0.000385
127.0.0.1, 2015-12-28 13:22:32, GET, /welcome/static/js/modernizr-2.8.3.min.js, HTTP/1.1, 200, 0.000396
127.0.0.1, 2015-12-28 13:22:32, GET, /welcome/static/css/calendar.css, HTTP/1.1, 200, 0.000434
127.0.0.1, 2015-12-28 13:22:32, GET, /welcome/static/js/calendar.js, HTTP/1.1, 200, 0.000479
127.0.0.1, 2015-12-28 13:22:32, GET, /welcome/static/js/jquery.js, HTTP/1.1, 200, 0.000357
127.0.0.1, 2015-12-28 13:22:32, GET, /welcome/static/js/web2py.js, HTTP/1.1, 200, 0.000981
127.0.0.1, 2015-12-28 13:22:32, GET, /welcome/static/js/bootstrap.min.js, HTTP/1.1, 200, 0.000691
127.0.0.1, 2015-12-28 13:22:33, GET, /welcome/static/js/web2py-bootstrap3.js, HTTP/1.1, 200, 0.000360
127.0.0.1, 2015-12-28 13:22:33, GET, /welcome/static/js/share.js, HTTP/1.1, 200, 0.000788
127.0.0.1, 2015-12-28 13:22:33, GET, /welcome/static/images/favicon.ico, HTTP/1.1, 200, 0.000584
127.0.0.1, 2015-12-28 13:22:33, GET, /welcome/static/images/background.jpg, HTTP/1.1, 200, 0.000346
127.0.0.1, 2015-12-28 13:22:33, GET, /welcome/static/images/twitter.png, HTTP/1.1, 200, 0.000539
127.0.0.1, 2015-12-28 13:22:33, GET, /welcome/static/fonts/glyphicons-halflings-regular.woff2, HTTP/1.1, 200, 0.001421
127.0.0.1, 2015-12-28 13:22:33, GET, /welcome/static/images/gplus-32.png, HTTP/1.1, 200, 0.000680
127.0.0.1, 2015-12-28 13:22:33, GET, /welcome/static/images/facebook.png, HTTP/1.1, 200, 0.000988
127.0.0.1, 2015-12-28 13:22:49, GET, /admin, HTTP/1.1, 200, 0.362538
127.0.0.1, 2015-12-28 13:22:49, GET, /admin/static/_2.13.4/js/jquery.js, HTTP/1.1, 200, 0.000721
127.0.0.1, 2015-12-28 13:22:49, GET, /admin/static/_2.13.4/css/calendar.css, HTTP/1.1, 200, 0.000722
127.0.0.1, 2015-12-28 13:22:49, GET, /admin/static/_2.13.4/plugin_multiselect/jquery.multi-select.js, HTTP/1.1, 200, 0.000587
127.0.0.1, 2015-12-28 13:22:49, GET, /admin/static/_2.13.4/js/web2py.js, HTTP/1.1, 200, 0.001840
127.0.0.1, 2015-12-28 13:22:49, GET, /admin/static/_2.13.4/plugin_multiselect/multi-select.css, HTTP/1.1, 200, 0.000523
127.0.0.1, 2015-12-28 13:22:49, GET, /admin/static/_2.13.4/js/calendar.js, HTTP/1.1, 200, 0.002936
127.0.0.1, 2015-12-28 13:22:49, GET, /admin/static/_2.13.4/plugin_multiselect/start.js, HTTP/1.1, 200, 0.000858
127.0.0.1, 2015-12-28 13:22:49, GET, /admin/static/_2.13.4/plugin_statebutton/js/bootstrap-switch.js, HTTP/1.1, 200, 0.000630
127.0.0.1, 2015-12-28 13:22:49, GET, /admin/static/_2.13.4/plugin_statebutton/css/bootstrap-switch.css, HTTP/1.1, 200, 0.000413
127.0.0.1, 2015-12-28 13:22:49, GET, /admin/static/_2.13.4/css/bootstrap.min.css, HTTP/1.1, 200, 0.000355
127.0.0.1, 2015-12-28 13:22:49, GET, /admin/static/_2.13.4/css/bootstrap_essentials.css, HTTP/1.1, 200, 0.000356
127.0.0.1, 2015-12-28 13:22:49, GET, /admin/static/_2.13.4/css/bootstrap-responsive.min.css, HTTP/1.1, 200, 0.000410
127.0.0.1, 2015-12-28 13:22:49, GET, /admin/static/_2.13.4/js/bootstrap.min.js, HTTP/1.1, 200, 0.000360
127.0.0.1, 2015-12-28 13:22:49, GET, /admin/static/_2.13.4/images/questions.png, HTTP/1.1, 200, 0.000359
127.0.0.1, 2015-12-28 13:22:50, GET, /favicon.ico, HTTP/1.1, 400, 0.000227
127.0.0.1, 2015-12-28 13:22:50, GET, /favicon.ico, HTTP/1.1, 400, 0.000221
127.0.0.1, 2015-12-28 13:22:52, POST, /admin/default/index, HTTP/1.1, 200, 0.038373
127.0.0.1, 2015-12-28 13:22:58, POST, /admin/default/index, HTTP/1.1, 200, 0.033782
127.0.0.1, 2015-12-28 13:23:14, POST, /admin/default/index, HTTP/1.1, 303, 0.124453
127.0.0.1, 2015-12-28 13:23:14, GET, /admin/default/site, HTTP/1.1, 200, 0.101359
127.0.0.1, 2015-12-28 13:23:14, GET, /admin/static/_2.13.4/js/jquery.js, HTTP/1.1, 304, 0.000339
127.0.0.1, 2015-12-28 13:23:14, GET, /admin/static/_2.13.4/plugin_multiselect/start.js, HTTP/1.1, 304, 0.000338
127.0.0.1, 2015-12-28 13:23:14, GET, /admin/static/_2.13.4/js/web2py.js, HTTP/1.1, 304, 0.000497
127.0.0.1, 2015-12-28 13:23:14, GET, /admin/static/_2.13.4/js/calendar.js, HTTP/1.1, 304, 0.000333
127.0.0.1, 2015-12-28 13:23:14, GET, /admin/static/_2.13.4/css/calendar.css, HTTP/1.1, 304, 0.000764
127.0.0.1, 2015-12-28 13:23:14, GET, /admin/static/_2.13.4/plugin_multiselect/jquery.multi-select.js, HTTP/1.1, 304, 0.000835
127.0.0.1, 2015-12-28 13:23:14, GET, /admin/static/_2.13.4/plugin_multiselect/multi-select.css, HTTP/1.1, 304, 0.000317
127.0.0.1, 2015-12-28 13:23:14, GET, /admin/static/_2.13.4/plugin_statebutton/js/bootstrap-switch.js, HTTP/1.1, 304, 0.000338
127.0.0.1, 2015-12-28 13:23:14, GET, /admin/static/_2.13.4/plugin_statebutton/css/bootstrap-switch.css, HTTP/1.1, 304, 0.000303
127.0.0.1, 2015-12-28 13:23:14, GET, /admin/static/_2.13.4/css/bootstrap.min.css, HTTP/1.1, 304, 0.000330
127.0.0.1, 2015-12-28 13:23:14, GET, /admin/static/_2.13.4/css/bootstrap_essentials.css, HTTP/1.1, 304, 0.000884
127.0.0.1, 2015-12-28 13:23:14, GET, /admin/static/_2.13.4/css/bootstrap-responsive.min.css, HTTP/1.1, 304, 0.000310
127.0.0.1, 2015-12-28 13:23:14, GET, /admin/static/_2.13.4/js/bootstrap.min.js, HTTP/1.1, 304, 0.000304
127.0.0.1, 2015-12-28 13:23:14, GET, /admin/static/_2.13.4/images/folder_locked.png, HTTP/1.1, 200, 0.000371
127.0.0.1, 2015-12-28 13:23:14, GET, /admin/static/_2.13.4/images/folder.png, HTTP/1.1, 200, 0.001032
127.0.0.1, 2015-12-28 13:23:14, GET, /admin/static/_2.13.4/images/questions.png, HTTP/1.1, 304, 0.000665
127.0.0.1, 2015-12-28 13:23:14, GET, /admin/static/_2.13.4/images/glyphicons-halflings-white.png, HTTP/1.1, 200, 0.000242
127.0.0.1, 2015-12-28 13:23:15, POST, /admin/default/check_version, HTTP/1.1, 200, 0.363519
127.0.0.1, 2015-12-28 13:23:35, POST, /admin/default/site, HTTP/1.1, 303, 0.076047
127.0.0.1, 2015-12-28 13:23:35, GET, /admin/default/design/WUI, HTTP/1.1, 200, 0.186544
127.0.0.1, 2015-12-28 13:23:35, GET, /admin/static/_2.13.4/images/search.png, HTTP/1.1, 200, 0.000921
127.0.0.1, 2015-12-28 13:23:35, GET, /admin/static/_2.13.4/images/help.png, HTTP/1.1, 200, 0.000696
127.0.0.1, 2015-12-28 13:23:35, GET, /admin/static/_2.13.4/images/test_icon.png, HTTP/1.1, 200, 0.000833
127.0.0.1, 2015-12-28 13:23:35, GET, /admin/static/_2.13.4/images/delete_icon.png, HTTP/1.1, 200, 0.000360
127.0.0.1, 2015-12-28 13:23:47, GET, /admin/default/peek/WUI/controllers/default.py, HTTP/1.1, 200, 0.037271
127.0.0.1, 2015-12-28 13:23:59, GET, /WUI/default/index, HTTP/1.1, 200, 0.670116
127.0.0.1, 2015-12-28 13:23:59, GET, /WUI/static/css/bootstrap.min.css, HTTP/1.1, 200, 0.000907
127.0.0.1, 2015-12-28 13:23:59, GET, /WUI/static/css/web2py-bootstrap3.css, HTTP/1.1, 200, 0.000355
127.0.0.1, 2015-12-28 13:23:59, GET, /WUI/static/css/calendar.css, HTTP/1.1, 200, 0.000907
127.0.0.1, 2015-12-28 13:23:59, GET, /WUI/static/js/jquery.js, HTTP/1.1, 200, 0.001300
127.0.0.1, 2015-12-28 13:23:59, GET, /WUI/static/js/modernizr-2.8.3.min.js, HTTP/1.1, 200, 0.001201
127.0.0.1, 2015-12-28 13:23:59, GET, /WUI/static/js/calendar.js, HTTP/1.1, 200, 0.000357
127.0.0.1, 2015-12-28 13:23:59, GET, /WUI/static/js/web2py.js, HTTP/1.1, 200, 0.000382
127.0.0.1, 2015-12-28 13:23:59, GET, /WUI/static/js/bootstrap.min.js, HTTP/1.1, 200, 0.000388
127.0.0.1, 2015-12-28 13:24:00, GET, /WUI/static/js/web2py-bootstrap3.js, HTTP/1.1, 200, 0.000386
127.0.0.1, 2015-12-28 13:24:00, GET, /WUI/static/js/share.js, HTTP/1.1, 200, 0.000362
127.0.0.1, 2015-12-28 13:24:00, GET, /WUI/static/images/favicon.ico, HTTP/1.1, 200, 0.000348
127.0.0.1, 2015-12-28 13:24:00, GET, /WUI/static/fonts/glyphicons-halflings-regular.woff2, HTTP/1.1, 200, 0.000344
127.0.0.1, 2015-12-28 13:24:00, GET, /WUI/static/images/background.jpg, HTTP/1.1, 200, 0.001010
127.0.0.1, 2015-12-28 13:24:00, GET, /WUI/static/images/facebook.png, HTTP/1.1, 200, 0.000362
127.0.0.1, 2015-12-28 13:24:00, GET, /WUI/static/images/twitter.png, HTTP/1.1, 200, 0.000539
127.0.0.1, 2015-12-28 13:24:00, GET, /WUI/static/images/gplus-32.png, HTTP/1.1, 200, 0.000519
127.0.0.1, 2015-12-28 13:24:15, GET, /admin/default/design/WUI, HTTP/1.1, 200, 0.107288
127.0.0.1, 2015-12-28 13:24:25, GET, /admin/default/site, HTTP/1.1, 200, 0.045378
127.0.0.1, 2015-12-28 13:24:32, GET, /admin/default/uninstall/examples, HTTP/1.1, 200, 0.034179
127.0.0.1, 2015-12-28 13:24:33, POST, /admin/default/uninstall/examples, HTTP/1.1, 303, 0.242748
127.0.0.1, 2015-12-28 13:24:34, GET, /admin/default/site, HTTP/1.1, 200, 0.042740
127.0.0.1, 2015-12-28 13:24:39, GET, /admin/default/site, HTTP/1.1, 200, 0.045019
127.0.0.1, 2015-12-28 13:24:39, GET, /admin/static/_2.13.4/js/jquery.js, HTTP/1.1, 304, 0.000432
127.0.0.1, 2015-12-28 13:24:39, GET, /admin/static/_2.13.4/plugin_multiselect/jquery.multi-select.js, HTTP/1.1, 304, 0.001486
127.0.0.1, 2015-12-28 13:24:39, GET, /admin/static/_2.13.4/js/calendar.js, HTTP/1.1, 304, 0.001160
127.0.0.1, 2015-12-28 13:24:39, GET, /admin/static/_2.13.4/js/web2py.js, HTTP/1.1, 304, 0.002017
127.0.0.1, 2015-12-28 13:24:39, GET, /admin/static/_2.13.4/css/calendar.css, HTTP/1.1, 304, 0.002082
127.0.0.1, 2015-12-28 13:24:39, GET, /admin/static/_2.13.4/plugin_multiselect/multi-select.css, HTTP/1.1, 304, 0.002242
127.0.0.1, 2015-12-28 13:24:39, GET, /admin/static/_2.13.4/plugin_multiselect/start.js, HTTP/1.1, 304, 0.000301
127.0.0.1, 2015-12-28 13:24:39, GET, /admin/static/_2.13.4/plugin_statebutton/js/bootstrap-switch.js, HTTP/1.1, 304, 0.000313
127.0.0.1, 2015-12-28 13:24:39, GET, /admin/static/_2.13.4/plugin_statebutton/css/bootstrap-switch.css, HTTP/1.1, 304, 0.000315
127.0.0.1, 2015-12-28 13:24:39, GET, /admin/static/_2.13.4/css/bootstrap_essentials.css, HTTP/1.1, 304, 0.000360
127.0.0.1, 2015-12-28 13:24:39, GET, /admin/static/_2.13.4/css/bootstrap.min.css, HTTP/1.1, 304, 0.000321
127.0.0.1, 2015-12-28 13:24:39, GET, /admin/static/_2.13.4/css/bootstrap-responsive.min.css, HTTP/1.1, 304, 0.000312
127.0.0.1, 2015-12-28 13:24:39, GET, /admin/static/_2.13.4/js/bootstrap.min.js, HTTP/1.1, 304, 0.000330
127.0.0.1, 2015-12-28 13:24:39, GET, /admin/static/_2.13.4/images/folder_locked.png, HTTP/1.1, 304, 0.000302
127.0.0.1, 2015-12-28 13:24:39, GET, /admin/static/_2.13.4/images/folder.png, HTTP/1.1, 304, 0.000314
127.0.0.1, 2015-12-28 13:24:39, GET, /admin/static/_2.13.4/images/questions.png, HTTP/1.1, 304, 0.000315
127.0.0.1, 2015-12-28 13:24:39, GET, /admin/static/_2.13.4/images/glyphicons-halflings-white.png, HTTP/1.1, 304, 0.000331
127.0.0.1, 2015-12-28 13:24:51, GET, /admin/default/uninstall/welcome, HTTP/1.1, 200, 0.032648
127.0.0.1, 2015-12-28 13:24:52, POST, /admin/default/uninstall/welcome, HTTP/1.1, 303, 0.180627
127.0.0.1, 2015-12-28 13:24:52, GET, /admin/default/site, HTTP/1.1, 200, 0.043052
127.0.0.1, 2015-12-28 13:25:06, GET, /admin/default/about/WUI, HTTP/1.1, 200, 0.035700
127.0.0.1, 2015-12-28 13:25:06, GET, /admin/static/_2.13.4/js/jquery.flot.js, HTTP/1.1, 200, 0.000385
127.0.0.1, 2015-12-28 13:25:06, GET, /admin/static/_2.13.4/js/jquery.flot.resize.js, HTTP/1.1, 200, 0.000368
127.0.0.1, 2015-12-28 13:25:12, GET, /admin/default/edit/WUI/ABOUT, HTTP/1.1, 200, 0.038632
127.0.0.1, 2015-12-28 13:25:12, GET, /admin/static/_2.13.4/codemirror/lib/codemirror.css, HTTP/1.1, 200, 0.000383
127.0.0.1, 2015-12-28 13:25:12, GET, /admin/static/_2.13.4/codemirror/theme/web2py.css, HTTP/1.1, 200, 0.000382
127.0.0.1, 2015-12-28 13:25:12, GET, /admin/static/_2.13.4/codemirror/lib/codemirror.js, HTTP/1.1, 200, 0.000360
127.0.0.1, 2015-12-28 13:25:12, GET, /admin/static/_2.13.4/codemirror/mode/python/python.js, HTTP/1.1, 200, 0.000908
127.0.0.1, 2015-12-28 13:25:12, GET, /admin/static/_2.13.4/codemirror/addon/edit/closetag.js, HTTP/1.1, 200, 0.000578
127.0.0.1, 2015-12-28 13:25:12, GET, /admin/static/_2.13.4/codemirror/mode/xml/xml.js, HTTP/1.1, 200, 0.001886
127.0.0.1, 2015-12-28 13:25:12, GET, /admin/static/_2.13.4/codemirror/addon/edit/matchbrackets.js, HTTP/1.1, 200, 0.002031
127.0.0.1, 2015-12-28 13:25:12, GET, /admin/static/_2.13.4/codemirror/mode/css/css.js, HTTP/1.1, 200, 0.000352
127.0.0.1, 2015-12-28 13:25:12, GET, /admin/static/_2.13.4/codemirror/mode/htmlmixed/htmlmixed.js, HTTP/1.1, 200, 0.000866
127.0.0.1, 2015-12-28 13:25:12, GET, /admin/static/_2.13.4/codemirror/addon/hint/python-hint.js, HTTP/1.1, 200, 0.002038
127.0.0.1, 2015-12-28 13:25:12, GET, /admin/static/_2.13.4/codemirror/addon/hint/show-hint.js, HTTP/1.1, 200, 0.002529
127.0.0.1, 2015-12-28 13:25:12, GET, /admin/static/_2.13.4/codemirror/mode/javascript/javascript.js, HTTP/1.1, 200, 0.001603
127.0.0.1, 2015-12-28 13:25:12, GET, /admin/static/_2.13.4/codemirror/addon/hint/show-hint.css, HTTP/1.1, 200, 0.000831
127.0.0.1, 2015-12-28 13:25:12, GET, /admin/static/_2.13.4/codemirror/addon/search/search.js, HTTP/1.1, 200, 0.000604
127.0.0.1, 2015-12-28 13:25:12, GET, /admin/static/_2.13.4/codemirror/addon/search/searchcursor.js, HTTP/1.1, 200, 0.000514
127.0.0.1, 2015-12-28 13:25:12, GET, /admin/static/_2.13.4/codemirror/addon/dialog/dialog.js, HTTP/1.1, 200, 0.000358
127.0.0.1, 2015-12-28 13:25:12, GET, /admin/static/_2.13.4/codemirror/addon/selection/active-line.js, HTTP/1.1, 200, 0.000789
127.0.0.1, 2015-12-28 13:25:12, GET, /admin/static/_2.13.4/codemirror/addon/display/fullscreen.js, HTTP/1.1, 200, 0.000622
127.0.0.1, 2015-12-28 13:25:12, GET, /admin/static/_2.13.4/codemirror/addon/edit/trailingspace.js, HTTP/1.1, 200, 0.002222
127.0.0.1, 2015-12-28 13:25:12, GET, /admin/static/_2.13.4/codemirror/addon/dialog/dialog.css, HTTP/1.1, 200, 0.002720
127.0.0.1, 2015-12-28 13:25:12, GET, /admin/static/_2.13.4/codemirror/addon/display/fullscreen.css, HTTP/1.1, 200, 0.000350
127.0.0.1, 2015-12-28 13:25:12, GET, /admin/static/_2.13.4/codemirror/addon/fold/foldcode.js, HTTP/1.1, 200, 0.000384
127.0.0.1, 2015-12-28 13:25:12, GET, /admin/static/_2.13.4/codemirror/addon/fold/foldgutter.js, HTTP/1.1, 200, 0.001012
127.0.0.1, 2015-12-28 13:25:12, GET, /admin/static/_2.13.4/codemirror/addon/fold/brace-fold.js, HTTP/1.1, 200, 0.001081
127.0.0.1, 2015-12-28 13:25:12, GET, /admin/static/_2.13.4/codemirror/addon/fold/xml-fold.js, HTTP/1.1, 200, 0.000362
127.0.0.1, 2015-12-28 13:25:12, GET, /admin/static/_2.13.4/codemirror/addon/fold/comment-fold.js, HTTP/1.1, 200, 0.000350
127.0.0.1, 2015-12-28 13:25:12, GET, /admin/static/_2.13.4/codemirror/addon/comment/comment.js, HTTP/1.1, 200, 0.000828
127.0.0.1, 2015-12-28 13:25:12, GET, /admin/static/_2.13.4/codemirror/addon/fold/indent-fold.js, HTTP/1.1, 200, 0.000600
127.0.0.1, 2015-12-28 13:25:12, GET, /admin/static/_2.13.4/codemirror/addon/fold/foldgutter.css, HTTP/1.1, 200, 0.000484
127.0.0.1, 2015-12-28 13:25:12, GET, /admin/static/_2.13.4/codemirror/emmet.min.js, HTTP/1.1, 200, 0.000379
127.0.0.1, 2015-12-28 13:25:12, GET, /admin/static/_2.13.4/js/ajax_editor.js, HTTP/1.1, 200, 0.000353
127.0.0.1, 2015-12-28 13:25:12, GET, /admin/static/_2.13.4/css/typeahead.js-bootstrap.css, HTTP/1.1, 200, 0.000365
127.0.0.1, 2015-12-28 13:25:12, GET, /admin/static/_2.13.4/css/web2py-codemirror.css, HTTP/1.1, 200, 0.000878
127.0.0.1, 2015-12-28 13:25:12, GET, /admin/static/_2.13.4/js/typeahead.min.js, HTTP/1.1, 200, 0.000933
127.0.0.1, 2015-12-28 13:25:12, GET, /admin/static/_2.13.4/js/hogan-2.0.0.js, HTTP/1.1, 200, 0.000357
127.0.0.1, 2015-12-28 13:25:13, GET, /admin/static/_2.13.4/images/glyphicons-halflings.png, HTTP/1.1, 200, 0.000364
127.0.0.1, 2015-12-28 13:25:13, GET, /admin/static/_2.13.4/images/files_toggle.png, HTTP/1.1, 200, 0.000359
127.0.0.1, 2015-12-28 13:25:13, GET, /admin/default/editor_sessions, HTTP/1.1, 200, 0.040258
127.0.0.1, 2015-12-28 13:25:13, GET, /admin/default/todolist.load, HTTP/1.1, 200, 0.069423
127.0.0.1, 2015-12-28 13:25:13, GET, /admin/default/files_menu, HTTP/1.1, 200, 0.114181
127.0.0.1, 2015-12-28 13:25:13, GET, /WUI/appadmin/hooks, HTTP/1.1, 200, 0.182191
127.0.0.1, 2015-12-28 13:25:13, GET, /admin/default/edit/WUI/ABOUT, HTTP/1.1, 200, 0.187213
127.0.0.1, 2015-12-28 13:25:13, GET, /admin/static/_2.13.4/images/save_icon.png, HTTP/1.1, 200, 0.000325
127.0.0.1, 2015-12-28 13:25:13, POST, /admin/debug/list_breakpoints, HTTP/1.1, 200, 0.080992
127.0.0.1, 2015-12-28 13:26:02, POST, /admin/default/edit/WUI/ABOUT, HTTP/1.1, 200, 0.029100
127.0.0.1, 2015-12-28 13:26:13, GET, /admin/default/todolist.load, HTTP/1.1, 200, 0.054204
127.0.0.1, 2015-12-28 13:26:14, GET, /WUI/appadmin/hooks, HTTP/1.1, 200, 1.270252
127.0.0.1, 2015-12-28 13:26:14, GET, /admin/default/site, HTTP/1.1, 200, 0.169137
127.0.0.1, 2015-12-28 13:26:45, GET, /, HTTP/1.1, 303, 0.000454
127.0.0.1, 2015-12-28 13:26:45, GET, /welcome/default/index, HTTP/1.1, 404, 0.000319
127.0.0.1, 2015-12-28 13:29:55, GET, /admin/default/reload_routes, HTTP/1.1, 303, 0.033676
127.0.0.1, 2015-12-28 13:29:55, GET, /admin/default/site, HTTP/1.1, 200, 0.039330
127.0.0.1, 2015-12-28 13:29:59, GET, /, HTTP/1.1, 303, 0.000387
127.0.0.1, 2015-12-28 13:29:59, GET, /welcome/default/index, HTTP/1.1, 404, 0.000313
127.0.0.1, 2015-12-28 13:30:02, GET, /, HTTP/1.1, 303, 0.000369
127.0.0.1, 2015-12-28 13:30:02, GET, /welcome/default/index, HTTP/1.1, 404, 0.000313
127.0.0.1, 2015-12-28 13:30:28, GET, /admin/default/reload_routes, HTTP/1.1, 303, 0.031557
127.0.0.1, 2015-12-28 13:30:28, GET, /admin/site, HTTP/1.1, 200, 0.043602
127.0.0.1, 2015-12-28 13:30:32, GET, /, HTTP/1.1, 200, 0.432269
127.0.0.1, 2015-12-28 13:30:32, GET, /WUI/static/js/share.js, HTTP/1.1, 304, 0.001453
